<?xml version="1.0" encoding="utf-8"?>
<!-- Generator: Adobe Illustrator 18.0.0, SVG Export Plug-In . SVG Version: 6.00 Build 0)  -->
<svg version="1.1" id="Layer_1" xmlns="http://www.w3.org/2000/svg" xmlns:xlink="http://www.w3.org/1999/xlink" x="0px" y="0px"
	 viewBox="0 0 36 36" enable-background="new 0 0 36 36" xml:space="preserve">
<g>
	<path d="M16,20.7c-0.1,0.1-0.1,0.3,0.1,0.3h4.1c0.1,0,0.2-0.1,0.2-0.3v-1.6c0-0.2-0.3-0.2-0.3,0c-0.1,0.6-0.3,0.9-1,0.9h-1.6
		c0.5-0.4,0.9-0.7,1.3-1.1c0.7-0.6,1.6-1.4,1.6-2.4c0-0.9-0.7-1.8-2.1-1.8c-1.3,0-2.1,0.8-2.1,1.8c0,0.6,0.4,0.9,0.8,0.9
		c0.3,0,0.5-0.1,0.5-0.5c0-0.2-0.1-0.3-0.1-0.4c-0.1-0.1-0.2-0.2-0.2-0.4c0-0.5,0.4-0.8,0.9-0.8c0.6,0,1,0.4,1,1.2
		c0,0.7-0.2,1.5-1.1,2.3C17.4,19.6,16.9,20.1,16,20.7z"/>
	<path d="M28.5,17.7h-5.6c-0.3,0-0.3,0.6,0,0.6h5.6C28.8,18.3,28.8,17.7,28.5,17.7z"/>
	<path d="M8.4,18.3H14c0.3,0,0.3-0.6,0-0.6H8.4C8.1,17.7,8.1,18.3,8.4,18.3z"/>
	<path d="M28.5,11.6h-2.3c-0.2,0-0.3-0.1-0.3-0.2V-4.9c0-0.2,0.1-0.3,0.3-0.3h2.3c0.3,0,0.3-0.6,0-0.6h-5.1c-0.3,0-0.5,0.2-0.6,0.4
		L18.5,7.2l-0.1-0.1L14.1-5c-0.1-0.4-0.3-0.7-0.6-0.7H8.4c-0.3,0-0.3,0.6,0,0.6h2.2c0.2,0,0.3,0.1,0.3,0.3v16.2
		c0,0.2-0.1,0.2-0.3,0.2H8.4c-0.3,0-0.3,0.5,0,0.5h5.8c0.3,0,0.3-0.5,0-0.5h-2.3c-0.3,0-0.3-0.1-0.3-0.2v-16l0,0.1L17.5,12
		c0,0.1,0.1,0.1,0.2,0l5.7-16.8l0,0v16.2c0,0.2-0.1,0.2-0.2,0.2h-2.4c-0.3,0-0.3,0.5,0,0.5h7.7C28.8,12.2,28.8,11.6,28.5,11.6z"/>
	<path d="M28.5,41.2h-2.3c-0.2,0-0.3-0.1-0.3-0.2V24.7c0-0.2,0.1-0.3,0.3-0.3h2.3c0.3,0,0.3-0.6,0-0.6h-5.1c-0.3,0-0.5,0.2-0.6,0.4
		l-4.3,12.5l-0.1-0.1l-4.3-12.1c-0.1-0.4-0.3-0.7-0.6-0.7H8.4c-0.3,0-0.3,0.6,0,0.6h2.2c0.2,0,0.3,0.1,0.3,0.3V41
		c0,0.2-0.1,0.2-0.3,0.2H8.4c-0.3,0-0.3,0.5,0,0.5h5.8c0.3,0,0.3-0.5,0-0.5h-2.3c-0.3,0-0.3-0.1-0.3-0.2v-16l0,0.1l5.9,16.6
		c0,0.1,0.1,0.1,0.2,0l5.7-16.8l0,0V41c0,0.2-0.1,0.2-0.2,0.2h-2.4c-0.3,0-0.3,0.5,0,0.5h7.7C28.8,41.8,28.8,41.2,28.5,41.2z"/>
</g>
</svg>
